Introduction to paristools • paristools
…
            2022-05-14

      Source: vignettes/paristools.Rmd
      paristools.Rmd

library(paristools)
library(ggplot2)

read files

sam_file <- system.file('extdata', 'Neat1_1.Aligend_trunc.sam', package = 'paristools')

mapping <- read_sam(sam_file)
mapping
#> # A tibble: 4,996 × 11
#>    QNAME              FLAG RNAME   POS  MAPQ CIGAR RNEXT PNEXT  TLEN SEQ   QUAL 
#>    <chr>             <int> <chr> <int> <int> <chr> <chr> <int> <int> <chr> <chr>
#>  1 ST-E00310:689:HT…     0 neat1  2691   255 8S20… *         0     0 TCGT… JJAJ…
#>  2 ST-E00310:689:HT…    16 neat1   388   255 4S31M *         0     0 ACTC… <-FF…
#>  3 ST-E00310:689:HT…     0 neat1  1653   255 2S32M *         0     0 TTGA… A<F<…
#>  4 ST-E00310:689:HT…     0 neat1  3043     3 5S38M *         0     0 ATTC… JJJJ…
#>  5 ST-E00310:689:HT…   256 neat1  2534     3 5M50… *         0     0 ATTC… JJJJ…
#>  6 ST-E00310:689:HT…     0 neat1  2979   255 24M9S *         0     0 TTTT… JJJJ…
#>  7 ST-E00310:689:HT…     0 neat1  2995   255 41M   *         0     0 AAAA… JJJJ…
#>  8 ST-E00310:689:HT…     0 neat1   184   255 1S29M *         0     0 ATCC… JJJJ…
#>  9 ST-E00310:689:HT…     0 neat1   227     3 26M7… *         0     0 AGAC… JFJJ…
#> 10 ST-E00310:689:HT…   256 neat1   227     3 27M6S *         0     0 AGAC… JFJJ…
#> # … with 4,986 more rows

duplexgroup_file <- system.file('extdata', 'Neat1_1.duplexgroup', package = 'paristools');

duplex_group <- read_duplexgroup(duplexgroup_file)
duplex_group
#> # A tibble: 15,964 × 8
#>    chrom strand start   end pair  type   id    score
#>    <chr> <chr>  <int> <int> <chr> <chr>  <chr> <dbl>
#>  1 neat1 +          1    15 left  genome 0     0.01 
#>  2 neat1 +         40    50 right genome 0     0.01 
#>  3 neat1 +          1    15 left  read   0     0.01 
#>  4 neat1 +          1    19 left  read   0     0.01 
#>  5 neat1 +         40    69 right read   0     0.01 
#>  6 neat1 +         27    50 right read   0     0.01 
#>  7 neat1 +          1    15 left  genome 1     0.012
#>  8 neat1 +        303   316 right genome 1     0.012
#>  9 neat1 +          1    15 left  read   1     0.012
#> 10 neat1 +          1    16 left  read   1     0.012
#> # … with 15,954 more rows

refer to read_bed()

calculate coverage

reference coverage

loc_df <- mapping |> sam_to_loc_df() 
loc_df
#> # A tibble: 5,859 × 4
#>    chrom strand start   end
#>    <chr> <chr>  <int> <int>
#>  1 neat1 +        170   200
#>  2 neat1 +        774   807
#>  3 neat1 +        294   325
#>  4 neat1 +        311   343
#>  5 neat1 +       1032  1063
#>  6 neat1 +       3158  3177
#>  7 neat1 +       2326  2356
#>  8 neat1 -       2493  2529
#>  9 neat1 -        658   685
#> 10 neat1 -        658   683
#> # … with 5,849 more rows

ref_coverage <- loc_df |> cal_coverage()
ref_coverage
#> # A tibble: 6,354 × 4
#>    chrom strand   pos n_reads
#>    <chr> <chr>  <int>   <int>
#>  1 neat1 +          1      14
#>  2 neat1 +          2      15
#>  3 neat1 +          3      15
#>  4 neat1 +          4      15
#>  5 neat1 +          5      16
#>  6 neat1 +          6      17
#>  7 neat1 +          7      17
#>  8 neat1 +          8      20
#>  9 neat1 +          9      23
#> 10 neat1 +         10      24
#> # … with 6,344 more rows
…
duplex group segment average coverage

dg_coverage <- get_dg_coverage(duplex_group, ref_coverage)
dg_coverage
#> # A tibble: 1,884 × 6
#>    id    chrom strand pair  n_reads support
#>    <chr> <chr> <chr>  <chr>   <dbl>   <int>
#>  1 0     neat1 +      left     22.8       2
#>  2 0     neat1 +      right    26.1       2
#>  3 1     neat1 +      left     22.8       2
#>  4 1     neat1 +      right    66.8       2
#>  5 100   neat1 +      left     57.6       2
#>  6 100   neat1 +      right    38.2       2
#>  7 1000  neat1 +      left     56.2       2
#>  8 1000  neat1 +      right    50.1       2
#>  9 1001  neat1 +      left     58.6       2
#> 10 1001  neat1 +      right    43         2
#> # … with 1,874 more rows
…
others

mapping |> dplyr::mutate(strand = purrr::map_chr(FLAG, paristools:::get_strand))
#> # A tibble: 4,996 × 12
#>    QNAME       FLAG RNAME   POS  MAPQ CIGAR RNEXT PNEXT  TLEN SEQ   QUAL  strand
#>    <chr>      <int> <chr> <int> <int> <chr> <chr> <int> <int> <chr> <chr> <chr> 
#>  1 ST-E00310…     0 neat1  2691   255 8S20… *         0     0 TCGT… JJAJ… +     
#>  2 ST-E00310…    16 neat1   388   255 4S31M *         0     0 ACTC… <-FF… -     
#>  3 ST-E00310…     0 neat1  1653   255 2S32M *         0     0 TTGA… A<F<… +     
#>  4 ST-E00310…     0 neat1  3043     3 5S38M *         0     0 ATTC… JJJJ… +     
#>  5 ST-E00310…   256 neat1  2534     3 5M50… *         0     0 ATTC… JJJJ… +     
#>  6 ST-E00310…     0 neat1  2979   255 24M9S *         0     0 TTTT… JJJJ… +     
#>  7 ST-E00310…     0 neat1  2995   255 41M   *         0     0 AAAA… JJJJ… +     
#>  8 ST-E00310…     0 neat1   184   255 1S29M *         0     0 ATCC… JJJJ… +     
#>  9 ST-E00310…     0 neat1   227     3 26M7… *         0     0 AGAC… JFJJ… +     
#> 10 ST-E00310…   256 neat1   227     3 27M6S *         0     0 AGAC… JFJJ… +     
#> # … with 4,986 more rows
…
